{
  "count": 2180,
  "next": "https://pokeapi.co/api/v2/item?offset=280&limit=20",
  "previous": "https://pokeapi.co/api/v2/item?offset=240&limit=20",
  "results": [
    {
      "name": "heat-rock",
      "url": "https://pokeapi.co/api/v2/item/261/"
    },
    {
      "name": "damp-rock",
      "url": "https://pokeapi.co/api/v2/item/262/"
    },
    {
      "name": "grip-claw",
      "url": "https://pokeapi.co/api/v2/item/263/"
    },
    {
      "name": "choice-scarf",
      "url": "https://pokeapi.co/api/v2/item/264/"
    },
    {
      "name": "sticky-barb",
      "url": "https://pokeapi.co/api/v2/item/265/"
    },
    {
      "name": "power-bracer",
      "url": "https://pokeapi.co/api/v2/item/266/"
    },
    {
      "name": "power-belt",
      "url": "https://pokeapi.co/api/v2/item/267/"
    },
    {
      "name": "power-lens",
      "url": "https://pokeapi.co/api/v2/item/268/"
    },
    {
      "name": "power-band",
      "url": "https://pokeapi.co/api/v2/item/269/"
    },
    {
      "name": "power-anklet",
      "url": "https://pokeapi.co/api/v2/item/270/"
    },
    {
      "name": "power-weight",
      "url": "https://pokeapi.co/api/v2/item/271/"
    },
    {
      "name": "shed-shell",
      "url": "https://pokeapi.co/api/v2/item/272/"
    },
    {
      "name": "big-root",
      "url": "https://pokeapi.co/api/v2/item/273/"
    },
    {
      "name": "choice-specs",
      "url": "https://pokeapi.co/api/v2/item/274/"
    },
    {
      "name": "flame-plate",
      "url": "https://pokeapi.co/api/v2/item/275/"
    },
    {
      "name": "splash-plate",
      "url": "https://pokeapi.co/api/v2/item/276/"
    },
    {
      "name": "zap-plate",
      "url": "https://pokeapi.co/api/v2/item/277/"
    },
    {
      "name": "meadow-plate",
      "url": "https://pokeapi.co/api/v2/item/278/"
    },
    {
      "name": "icicle-plate",
      "url": "https://pokeapi.co/api/v2/item/279/"
    },
    {
      "name": "fist-plate",
      "url": "https://pokeapi.co/api/v2/item/280/"
    }
  ]
}