{
  "count": 2180,
  "next": "https://pokeapi.co/api/v2/item?offset=260&limit=20",
  "previous": "https://pokeapi.co/api/v2/item?offset=220&limit=20",
  "results": [
    {
      "name": "yellow-scarf",
      "url": "https://pokeapi.co/api/v2/item/241/"
    },
    {
      "name": "wide-lens",
      "url": "https://pokeapi.co/api/v2/item/242/"
    },
    {
      "name": "muscle-band",
      "url": "https://pokeapi.co/api/v2/item/243/"
    },
    {
      "name": "wise-glasses",
      "url": "https://pokeapi.co/api/v2/item/244/"
    },
    {
      "name": "expert-belt",
      "url": "https://pokeapi.co/api/v2/item/245/"
    },
    {
      "name": "light-clay",
      "url": "https://pokeapi.co/api/v2/item/246/"
    },
    {
      "name": "life-orb",
      "url": "https://pokeapi.co/api/v2/item/247/"
    },
    {
      "name": "power-herb",
      "url": "https://pokeapi.co/api/v2/item/248/"
    },
    {
      "name": "toxic-orb",
      "url": "https://pokeapi.co/api/v2/item/249/"
    },
    {
      "name": "flame-orb",
      "url": "https://pokeapi.co/api/v2/item/250/"
    },
    {
      "name": "quick-powder",
      "url": "https://pokeapi.co/api/v2/item/251/"
    },
    {
      "name": "focus-sash",
      "url": "https://pokeapi.co/api/v2/item/252/"
    },
    {
      "name": "zoom-lens",
      "url": "https://pokeapi.co/api/v2/item/253/"
    },
    {
      "name": "metronome",
      "url": "https://pokeapi.co/api/v2/item/254/"
    },
    {
      "name": "iron-ball",
      "url": "https://pokeapi.co/api/v2/item/255/"
    },
    {
      "name": "lagging-tail",
      "url": "https://pokeapi.co/api/v2/item/256/"
    },
    {
      "name": "destiny-knot",
      "url": "https://pokeapi.co/api/v2/item/257/"
    },
    {
      "name": "black-sludge",
      "url": "https://pokeapi.co/api/v2/item/258/"
    },
    {
      "name": "icy-rock",
      "url": "https://pokeapi.co/api/v2/item/259/"
    },
    {
      "name": "smooth-rock",
      "url": "https://pokeapi.co/api/v2/item/260/"
    }
  ]
}