{
  "count": 2102,
  "next": "https://pokeapi.co/api/v2/machine?offset=1420&limit=20",
  "previous": "https://pokeapi.co/api/v2/machine?offset=1380&limit=20",
  "results": [
    {
      "url": "https://pokeapi.co/api/v2/machine/1401/"
    },
    {
      "url": "https://pokeapi.co/api/v2/machine/1402/"
    },
    {
      "url": "https://pokeapi.co/api/v2/machine/1403/"
    },
    {
      "url": "https://pokeapi.co/api/v2/machine/1404/"
    },
    {
      "url": "https://pokeapi.co/api/v2/machine/1405/"
    },
    {
      "url": "https://pokeapi.co/api/v2/machine/1406/"
    },
    {
      "url": "https://pokeapi.co/api/v2/machine/1407/"
    },
    {
      "url": "https://pokeapi.co/api/v2/machine/1408/"
    },
    {
      "url": "https://pokeapi.co/api/v2/machine/1409/"
    },
    {
      "url": "https://pokeapi.co/api/v2/machine/1410/"
    },
    {
      "url": "https://pokeapi.co/api/v2/machine/1411/"
    },
    {
      "url": "https://pokeapi.co/api/v2/machine/1412/"
    },
    {
      "url": "https://pokeapi.co/api/v2/machine/1413/"
    },
    {
      "url": "https://pokeapi.co/api/v2/machine/1414/"
    },
    {
      "url": "https://pokeapi.co/api/v2/machine/1415/"
    },
    {
      "url": "https://pokeapi.co/api/v2/machine/1416/"
    },
    {
      "url": "https://pokeapi.co/api/v2/machine/1417/"
    },
    {
      "url": "https://pokeapi.co/api/v2/machine/1418/"
    },
    {
      "url": "https://pokeapi.co/api/v2/machine/1419/"
    },
    {
      "url": "https://pokeapi.co/api/v2/machine/1420/"
    }
  ]
}