{
  "count": 2180,
  "next": "https://pokeapi.co/api/v2/item?offset=180&limit=20",
  "previous": "https://pokeapi.co/api/v2/item?offset=140&limit=20",
  "results": [
    {
      "name": "occa-berry",
      "url": "https://pokeapi.co/api/v2/item/161/"
    },
    {
      "name": "passho-berry",
      "url": "https://pokeapi.co/api/v2/item/162/"
    },
    {
      "name": "wacan-berry",
      "url": "https://pokeapi.co/api/v2/item/163/"
    },
    {
      "name": "rindo-berry",
      "url": "https://pokeapi.co/api/v2/item/164/"
    },
    {
      "name": "yache-berry",
      "url": "https://pokeapi.co/api/v2/item/165/"
    },
    {
      "name": "chople-berry",
      "url": "https://pokeapi.co/api/v2/item/166/"
    },
    {
      "name": "kebia-berry",
      "url": "https://pokeapi.co/api/v2/item/167/"
    },
    {
      "name": "shuca-berry",
      "url": "https://pokeapi.co/api/v2/item/168/"
    },
    {
      "name": "coba-berry",
      "url": "https://pokeapi.co/api/v2/item/169/"
    },
    {
      "name": "payapa-berry",
      "url": "https://pokeapi.co/api/v2/item/170/"
    },
    {
      "name": "tanga-berry",
      "url": "https://pokeapi.co/api/v2/item/171/"
    },
    {
      "name": "charti-berry",
      "url": "https://pokeapi.co/api/v2/item/172/"
    },
    {
      "name": "kasib-berry",
      "url": "https://pokeapi.co/api/v2/item/173/"
    },
    {
      "name": "haban-berry",
      "url": "https://pokeapi.co/api/v2/item/174/"
    },
    {
      "name": "colbur-berry",
      "url": "https://pokeapi.co/api/v2/item/175/"
    },
    {
      "name": "babiri-berry",
      "url": "https://pokeapi.co/api/v2/item/176/"
    },
    {
      "name": "chilan-berry",
      "url": "https://pokeapi.co/api/v2/item/177/"
    },
    {
      "name": "liechi-berry",
      "url": "https://pokeapi.co/api/v2/item/178/"
    },
    {
      "name": "ganlon-berry",
      "url": "https://pokeapi.co/api/v2/item/179/"
    },
    {
      "name": "salac-berry",
      "url": "https://pokeapi.co/api/v2/item/180/"
    }
  ]
}