{
  "count": 2180,
  "next": "https://pokeapi.co/api/v2/item?offset=1380&limit=20",
  "previous": "https://pokeapi.co/api/v2/item?offset=1340&limit=20",
  "results": [
    {
      "name": "dynamax-crystal-uma3594",
      "url": "https://pokeapi.co/api/v2/item/1412/"
    },
    {
      "name": "dynamax-crystal-vir5056",
      "url": "https://pokeapi.co/api/v2/item/1413/"
    },
    {
      "name": "dynamax-crystal-vir4825",
      "url": "https://pokeapi.co/api/v2/item/1414/"
    },
    {
      "name": "dynamax-crystal-vir4932",
      "url": "https://pokeapi.co/api/v2/item/1415/"
    },
    {
      "name": "dynamax-crystal-vir4540",
      "url": "https://pokeapi.co/api/v2/item/1416/"
    },
    {
      "name": "dynamax-crystal-vir4689",
      "url": "https://pokeapi.co/api/v2/item/1417/"
    },
    {
      "name": "dynamax-crystal-vir5338",
      "url": "https://pokeapi.co/api/v2/item/1418/"
    },
    {
      "name": "dynamax-crystal-vir4910",
      "url": "https://pokeapi.co/api/v2/item/1419/"
    },
    {
      "name": "dynamax-crystal-vir5315",
      "url": "https://pokeapi.co/api/v2/item/1420/"
    },
    {
      "name": "dynamax-crystal-vir5359",
      "url": "https://pokeapi.co/api/v2/item/1421/"
    },
    {
      "name": "dynamax-crystal-vir5409",
      "url": "https://pokeapi.co/api/v2/item/1422/"
    },
    {
      "name": "dynamax-crystal-vir5107",
      "url": "https://pokeapi.co/api/v2/item/1423/"
    },
    {
      "name": "dynamax-crystal-ari617",
      "url": "https://pokeapi.co/api/v2/item/1424/"
    },
    {
      "name": "dynamax-crystal-ari553",
      "url": "https://pokeapi.co/api/v2/item/1425/"
    },
    {
      "name": "dynamax-crystal-ari546",
      "url": "https://pokeapi.co/api/v2/item/1426/"
    },
    {
      "name": "dynamax-crystal-ari951",
      "url": "https://pokeapi.co/api/v2/item/1427/"
    },
    {
      "name": "dynamax-crystal-ori1713",
      "url": "https://pokeapi.co/api/v2/item/1428/"
    },
    {
      "name": "dynamax-crystal-ori2061",
      "url": "https://pokeapi.co/api/v2/item/1429/"
    },
    {
      "name": "dynamax-crystal-ori1790",
      "url": "https://pokeapi.co/api/v2/item/1430/"
    },
    {
      "name": "dynamax-crystal-ori1903",
      "url": "https://pokeapi.co/api/v2/item/1431/"
    }
  ]
}