{
  "count": 2180,
  "next": "https://pokeapi.co/api/v2/item?offset=1640&limit=20",
  "previous": "https://pokeapi.co/api/v2/item?offset=1600&limit=20",
  "results": [
    {
      "name": "kofu\u2019s-wallet",
      "url": "https://pokeapi.co/api/v2/item/1672/"
    },
    {
      "name": "tiny-bamboo-shoot",
      "url": "https://pokeapi.co/api/v2/item/1673/"
    },
    {
      "name": "big-bamboo-shoot",
      "url": "https://pokeapi.co/api/v2/item/1674/"
    },
    {
      "name": "scroll-of-darkness",
      "url": "https://pokeapi.co/api/v2/item/1675/"
    },
    {
      "name": "scroll-of-waters",
      "url": "https://pokeapi.co/api/v2/item/1676/"
    },
    {
      "name": "malicious-armor",
      "url": "https://pokeapi.co/api/v2/item/1677/"
    },
    {
      "name": "normal-tera-shard",
      "url": "https://pokeapi.co/api/v2/item/1678/"
    },
    {
      "name": "fire-tera-shard",
      "url": "https://pokeapi.co/api/v2/item/1679/"
    },
    {
      "name": "water-tera-shard",
      "url": "https://pokeapi.co/api/v2/item/1680/"
    },
    {
      "name": "electric-tera-shard",
      "url": "https://pokeapi.co/api/v2/item/1681/"
    },
    {
      "name": "grass-tera-shard",
      "url": "https://pokeapi.co/api/v2/item/1682/"
    },
    {
      "name": "ice-tera-shard",
      "url": "https://pokeapi.co/api/v2/item/1683/"
    },
    {
      "name": "fighting-tera-shard",
      "url": "https://pokeapi.co/api/v2/item/1684/"
    },
    {
      "name": "poison-tera-shard",
      "url": "https://pokeapi.co/api/v2/item/1685/"
    },
    {
      "name": "ground-tera-shard",
      "url": "https://pokeapi.co/api/v2/item/1686/"
    },
    {
      "name": "flying-tera-shard",
      "url": "https://pokeapi.co/api/v2/item/1687/"
    },
    {
      "name": "psychic-tera-shard",
      "url": "https://pokeapi.co/api/v2/item/1688/"
    },
    {
      "name": "bug-tera-shard",
      "url": "https://pokeapi.co/api/v2/item/1689/"
    },
    {
      "name": "rock-tera-shard",
      "url": "https://pokeapi.co/api/v2/item/1690/"
    },
    {
      "name": "ghost-tera-shard",
      "url": "https://pokeapi.co/api/v2/item/1691/"
    }
  ]
}