{
  "count": 2102,
  "next": "https://pokeapi.co/api/v2/machine?offset=520&limit=20",
  "previous": "https://pokeapi.co/api/v2/machine?offset=480&limit=20",
  "results": [
    {
      "url": "https://pokeapi.co/api/v2/machine/501/"
    },
    {
      "url": "https://pokeapi.co/api/v2/machine/502/"
    },
    {
      "url": "https://pokeapi.co/api/v2/machine/503/"
    },
    {
      "url": "https://pokeapi.co/api/v2/machine/504/"
    },
    {
      "url": "https://pokeapi.co/api/v2/machine/505/"
    },
    {
      "url": "https://pokeapi.co/api/v2/machine/506/"
    },
    {
      "url": "https://pokeapi.co/api/v2/machine/507/"
    },
    {
      "url": "https://pokeapi.co/api/v2/machine/508/"
    },
    {
      "url": "https://pokeapi.co/api/v2/machine/509/"
    },
    {
      "url": "https://pokeapi.co/api/v2/machine/510/"
    },
    {
      "url": "https://pokeapi.co/api/v2/machine/511/"
    },
    {
      "url": "https://pokeapi.co/api/v2/machine/512/"
    },
    {
      "url": "https://pokeapi.co/api/v2/machine/513/"
    },
    {
      "url": "https://pokeapi.co/api/v2/machine/514/"
    },
    {
      "url": "https://pokeapi.co/api/v2/machine/515/"
    },
    {
      "url": "https://pokeapi.co/api/v2/machine/516/"
    },
    {
      "url": "https://pokeapi.co/api/v2/machine/517/"
    },
    {
      "url": "https://pokeapi.co/api/v2/machine/518/"
    },
    {
      "url": "https://pokeapi.co/api/v2/machine/519/"
    },
    {
      "url": "https://pokeapi.co/api/v2/machine/520/"
    }
  ]
}