{
  "count": 2102,
  "next": "https://pokeapi.co/api/v2/machine?offset=400&limit=20",
  "previous": "https://pokeapi.co/api/v2/machine?offset=360&limit=20",
  "results": [
    {
      "url": "https://pokeapi.co/api/v2/machine/381/"
    },
    {
      "url": "https://pokeapi.co/api/v2/machine/382/"
    },
    {
      "url": "https://pokeapi.co/api/v2/machine/383/"
    },
    {
      "url": "https://pokeapi.co/api/v2/machine/384/"
    },
    {
      "url": "https://pokeapi.co/api/v2/machine/385/"
    },
    {
      "url": "https://pokeapi.co/api/v2/machine/386/"
    },
    {
      "url": "https://pokeapi.co/api/v2/machine/387/"
    },
    {
      "url": "https://pokeapi.co/api/v2/machine/388/"
    },
    {
      "url": "https://pokeapi.co/api/v2/machine/389/"
    },
    {
      "url": "https://pokeapi.co/api/v2/machine/390/"
    },
    {
      "url": "https://pokeapi.co/api/v2/machine/391/"
    },
    {
      "url": "https://pokeapi.co/api/v2/machine/392/"
    },
    {
      "url": "https://pokeapi.co/api/v2/machine/393/"
    },
    {
      "url": "https://pokeapi.co/api/v2/machine/394/"
    },
    {
      "url": "https://pokeapi.co/api/v2/machine/395/"
    },
    {
      "url": "https://pokeapi.co/api/v2/machine/396/"
    },
    {
      "url": "https://pokeapi.co/api/v2/machine/397/"
    },
    {
      "url": "https://pokeapi.co/api/v2/machine/398/"
    },
    {
      "url": "https://pokeapi.co/api/v2/machine/399/"
    },
    {
      "url": "https://pokeapi.co/api/v2/machine/400/"
    }
  ]
}