{
  "count": 2180,
  "next": "https://pokeapi.co/api/v2/item?offset=80&limit=20",
  "previous": "https://pokeapi.co/api/v2/item?offset=40&limit=20",
  "results": [
    {
      "name": "x-sp-atk",
      "url": "https://pokeapi.co/api/v2/item/61/"
    },
    {
      "name": "x-sp-def",
      "url": "https://pokeapi.co/api/v2/item/62/"
    },
    {
      "name": "poke-doll",
      "url": "https://pokeapi.co/api/v2/item/63/"
    },
    {
      "name": "fluffy-tail",
      "url": "https://pokeapi.co/api/v2/item/64/"
    },
    {
      "name": "blue-flute",
      "url": "https://pokeapi.co/api/v2/item/65/"
    },
    {
      "name": "yellow-flute",
      "url": "https://pokeapi.co/api/v2/item/66/"
    },
    {
      "name": "red-flute",
      "url": "https://pokeapi.co/api/v2/item/67/"
    },
    {
      "name": "black-flute",
      "url": "https://pokeapi.co/api/v2/item/68/"
    },
    {
      "name": "white-flute",
      "url": "https://pokeapi.co/api/v2/item/69/"
    },
    {
      "name": "shoal-salt",
      "url": "https://pokeapi.co/api/v2/item/70/"
    },
    {
      "name": "shoal-shell",
      "url": "https://pokeapi.co/api/v2/item/71/"
    },
    {
      "name": "red-shard",
      "url": "https://pokeapi.co/api/v2/item/72/"
    },
    {
      "name": "blue-shard",
      "url": "https://pokeapi.co/api/v2/item/73/"
    },
    {
      "name": "yellow-shard",
      "url": "https://pokeapi.co/api/v2/item/74/"
    },
    {
      "name": "green-shard",
      "url": "https://pokeapi.co/api/v2/item/75/"
    },
    {
      "name": "super-repel",
      "url": "https://pokeapi.co/api/v2/item/76/"
    },
    {
      "name": "max-repel",
      "url": "https://pokeapi.co/api/v2/item/77/"
    },
    {
      "name": "escape-rope",
      "url": "https://pokeapi.co/api/v2/item/78/"
    },
    {
      "name": "repel",
      "url": "https://pokeapi.co/api/v2/item/79/"
    },
    {
      "name": "sun-stone",
      "url": "https://pokeapi.co/api/v2/item/80/"
    }
  ]
}