{
  "count": 2180,
  "next": "https://pokeapi.co/api/v2/item?offset=960&limit=20",
  "previous": "https://pokeapi.co/api/v2/item?offset=920&limit=20",
  "results": [
    {
      "name": "n-lunarizer--split",
      "url": "https://pokeapi.co/api/v2/item/992/"
    },
    {
      "name": "ilimas-normalium-z",
      "url": "https://pokeapi.co/api/v2/item/993/"
    },
    {
      "name": "left-poke-ball",
      "url": "https://pokeapi.co/api/v2/item/994/"
    },
    {
      "name": "roto-hatch",
      "url": "https://pokeapi.co/api/v2/item/995/"
    },
    {
      "name": "roto-bargain",
      "url": "https://pokeapi.co/api/v2/item/996/"
    },
    {
      "name": "roto-prize-money",
      "url": "https://pokeapi.co/api/v2/item/997/"
    },
    {
      "name": "roto-exp-points",
      "url": "https://pokeapi.co/api/v2/item/998/"
    },
    {
      "name": "roto-friendship",
      "url": "https://pokeapi.co/api/v2/item/999/"
    },
    {
      "name": "roto-encounter",
      "url": "https://pokeapi.co/api/v2/item/1000/"
    },
    {
      "name": "roto-stealth",
      "url": "https://pokeapi.co/api/v2/item/1001/"
    },
    {
      "name": "roto-hp-restore",
      "url": "https://pokeapi.co/api/v2/item/1002/"
    },
    {
      "name": "roto-pp-restore",
      "url": "https://pokeapi.co/api/v2/item/1003/"
    },
    {
      "name": "roto-boost",
      "url": "https://pokeapi.co/api/v2/item/1004/"
    },
    {
      "name": "roto-catch",
      "url": "https://pokeapi.co/api/v2/item/1005/"
    },
    {
      "name": "autograph",
      "url": "https://pokeapi.co/api/v2/item/1006/"
    },
    {
      "name": "pokemon-box",
      "url": "https://pokeapi.co/api/v2/item/1007/"
    },
    {
      "name": "medicine-pocket",
      "url": "https://pokeapi.co/api/v2/item/1008/"
    },
    {
      "name": "candy-jar",
      "url": "https://pokeapi.co/api/v2/item/1009/"
    },
    {
      "name": "power-up-pocket",
      "url": "https://pokeapi.co/api/v2/item/1010/"
    },
    {
      "name": "clothing-trunk",
      "url": "https://pokeapi.co/api/v2/item/1011/"
    }
  ]
}