{
  "count": 2180,
  "next": "https://pokeapi.co/api/v2/item?offset=1060&limit=20",
  "previous": "https://pokeapi.co/api/v2/item?offset=1020&limit=20",
  "results": [
    {
      "name": "farfetchd-candy",
      "url": "https://pokeapi.co/api/v2/item/1092/"
    },
    {
      "name": "doduo-candy",
      "url": "https://pokeapi.co/api/v2/item/1093/"
    },
    {
      "name": "seel-candy",
      "url": "https://pokeapi.co/api/v2/item/1094/"
    },
    {
      "name": "grimer-candy",
      "url": "https://pokeapi.co/api/v2/item/1095/"
    },
    {
      "name": "shellder-candy",
      "url": "https://pokeapi.co/api/v2/item/1096/"
    },
    {
      "name": "gastly-candy",
      "url": "https://pokeapi.co/api/v2/item/1097/"
    },
    {
      "name": "onix-candy",
      "url": "https://pokeapi.co/api/v2/item/1098/"
    },
    {
      "name": "drowzee-candy",
      "url": "https://pokeapi.co/api/v2/item/1099/"
    },
    {
      "name": "krabby-candy",
      "url": "https://pokeapi.co/api/v2/item/1100/"
    },
    {
      "name": "voltorb-candy",
      "url": "https://pokeapi.co/api/v2/item/1101/"
    },
    {
      "name": "exeggcute-candy",
      "url": "https://pokeapi.co/api/v2/item/1102/"
    },
    {
      "name": "cubone-candy",
      "url": "https://pokeapi.co/api/v2/item/1103/"
    },
    {
      "name": "hitmonlee-candy",
      "url": "https://pokeapi.co/api/v2/item/1104/"
    },
    {
      "name": "hitmonchan-candy",
      "url": "https://pokeapi.co/api/v2/item/1105/"
    },
    {
      "name": "lickitung-candy",
      "url": "https://pokeapi.co/api/v2/item/1106/"
    },
    {
      "name": "koffing-candy",
      "url": "https://pokeapi.co/api/v2/item/1107/"
    },
    {
      "name": "rhyhorn-candy",
      "url": "https://pokeapi.co/api/v2/item/1108/"
    },
    {
      "name": "chansey-candy",
      "url": "https://pokeapi.co/api/v2/item/1109/"
    },
    {
      "name": "tangela-candy",
      "url": "https://pokeapi.co/api/v2/item/1110/"
    },
    {
      "name": "kangaskhan-candy",
      "url": "https://pokeapi.co/api/v2/item/1111/"
    }
  ]
}