{
  "count": 2180,
  "next": "https://pokeapi.co/api/v2/item?offset=320&limit=20",
  "previous": "https://pokeapi.co/api/v2/item?offset=280&limit=20",
  "results": [
    {
      "name": "dubious-disc",
      "url": "https://pokeapi.co/api/v2/item/301/"
    },
    {
      "name": "reaper-cloth",
      "url": "https://pokeapi.co/api/v2/item/302/"
    },
    {
      "name": "razor-claw",
      "url": "https://pokeapi.co/api/v2/item/303/"
    },
    {
      "name": "razor-fang",
      "url": "https://pokeapi.co/api/v2/item/304/"
    },
    {
      "name": "tm01",
      "url": "https://pokeapi.co/api/v2/item/305/"
    },
    {
      "name": "tm02",
      "url": "https://pokeapi.co/api/v2/item/306/"
    },
    {
      "name": "tm03",
      "url": "https://pokeapi.co/api/v2/item/307/"
    },
    {
      "name": "tm04",
      "url": "https://pokeapi.co/api/v2/item/308/"
    },
    {
      "name": "tm05",
      "url": "https://pokeapi.co/api/v2/item/309/"
    },
    {
      "name": "tm06",
      "url": "https://pokeapi.co/api/v2/item/310/"
    },
    {
      "name": "tm07",
      "url": "https://pokeapi.co/api/v2/item/311/"
    },
    {
      "name": "tm08",
      "url": "https://pokeapi.co/api/v2/item/312/"
    },
    {
      "name": "tm09",
      "url": "https://pokeapi.co/api/v2/item/313/"
    },
    {
      "name": "tm10",
      "url": "https://pokeapi.co/api/v2/item/314/"
    },
    {
      "name": "tm11",
      "url": "https://pokeapi.co/api/v2/item/315/"
    },
    {
      "name": "tm12",
      "url": "https://pokeapi.co/api/v2/item/316/"
    },
    {
      "name": "tm13",
      "url": "https://pokeapi.co/api/v2/item/317/"
    },
    {
      "name": "tm14",
      "url": "https://pokeapi.co/api/v2/item/318/"
    },
    {
      "name": "tm15",
      "url": "https://pokeapi.co/api/v2/item/319/"
    },
    {
      "name": "tm16",
      "url": "https://pokeapi.co/api/v2/item/320/"
    }
  ]
}