{
  "count": 2180,
  "next": "https://pokeapi.co/api/v2/item?offset=160&limit=20",
  "previous": "https://pokeapi.co/api/v2/item?offset=120&limit=20",
  "results": [
    {
      "name": "razz-berry",
      "url": "https://pokeapi.co/api/v2/item/141/"
    },
    {
      "name": "bluk-berry",
      "url": "https://pokeapi.co/api/v2/item/142/"
    },
    {
      "name": "nanab-berry",
      "url": "https://pokeapi.co/api/v2/item/143/"
    },
    {
      "name": "wepear-berry",
      "url": "https://pokeapi.co/api/v2/item/144/"
    },
    {
      "name": "pinap-berry",
      "url": "https://pokeapi.co/api/v2/item/145/"
    },
    {
      "name": "pomeg-berry",
      "url": "https://pokeapi.co/api/v2/item/146/"
    },
    {
      "name": "kelpsy-berry",
      "url": "https://pokeapi.co/api/v2/item/147/"
    },
    {
      "name": "qualot-berry",
      "url": "https://pokeapi.co/api/v2/item/148/"
    },
    {
      "name": "hondew-berry",
      "url": "https://pokeapi.co/api/v2/item/149/"
    },
    {
      "name": "grepa-berry",
      "url": "https://pokeapi.co/api/v2/item/150/"
    },
    {
      "name": "tamato-berry",
      "url": "https://pokeapi.co/api/v2/item/151/"
    },
    {
      "name": "cornn-berry",
      "url": "https://pokeapi.co/api/v2/item/152/"
    },
    {
      "name": "magost-berry",
      "url": "https://pokeapi.co/api/v2/item/153/"
    },
    {
      "name": "rabuta-berry",
      "url": "https://pokeapi.co/api/v2/item/154/"
    },
    {
      "name": "nomel-berry",
      "url": "https://pokeapi.co/api/v2/item/155/"
    },
    {
      "name": "spelon-berry",
      "url": "https://pokeapi.co/api/v2/item/156/"
    },
    {
      "name": "pamtre-berry",
      "url": "https://pokeapi.co/api/v2/item/157/"
    },
    {
      "name": "watmel-berry",
      "url": "https://pokeapi.co/api/v2/item/158/"
    },
    {
      "name": "durin-berry",
      "url": "https://pokeapi.co/api/v2/item/159/"
    },
    {
      "name": "belue-berry",
      "url": "https://pokeapi.co/api/v2/item/160/"
    }
  ]
}