{
  "count": 2180,
  "next": "https://pokeapi.co/api/v2/item?offset=580&limit=20",
  "previous": "https://pokeapi.co/api/v2/item?offset=540&limit=20",
  "results": [
    {
      "name": "magma-emblem",
      "url": "https://pokeapi.co/api/v2/item/561/"
    },
    {
      "name": "old-sea-map",
      "url": "https://pokeapi.co/api/v2/item/562/"
    },
    {
      "name": "douse-drive",
      "url": "https://pokeapi.co/api/v2/item/563/"
    },
    {
      "name": "shock-drive",
      "url": "https://pokeapi.co/api/v2/item/564/"
    },
    {
      "name": "burn-drive",
      "url": "https://pokeapi.co/api/v2/item/565/"
    },
    {
      "name": "chill-drive",
      "url": "https://pokeapi.co/api/v2/item/566/"
    },
    {
      "name": "sweet-heart",
      "url": "https://pokeapi.co/api/v2/item/567/"
    },
    {
      "name": "greet-mail",
      "url": "https://pokeapi.co/api/v2/item/568/"
    },
    {
      "name": "favored-mail",
      "url": "https://pokeapi.co/api/v2/item/569/"
    },
    {
      "name": "rsvp-mail",
      "url": "https://pokeapi.co/api/v2/item/570/"
    },
    {
      "name": "thanks-mail",
      "url": "https://pokeapi.co/api/v2/item/571/"
    },
    {
      "name": "inquiry-mail",
      "url": "https://pokeapi.co/api/v2/item/572/"
    },
    {
      "name": "like-mail",
      "url": "https://pokeapi.co/api/v2/item/573/"
    },
    {
      "name": "reply-mail",
      "url": "https://pokeapi.co/api/v2/item/574/"
    },
    {
      "name": "bridge-mail-s",
      "url": "https://pokeapi.co/api/v2/item/575/"
    },
    {
      "name": "bridge-mail-d",
      "url": "https://pokeapi.co/api/v2/item/576/"
    },
    {
      "name": "bridge-mail-t",
      "url": "https://pokeapi.co/api/v2/item/577/"
    },
    {
      "name": "bridge-mail-v",
      "url": "https://pokeapi.co/api/v2/item/578/"
    },
    {
      "name": "bridge-mail-m",
      "url": "https://pokeapi.co/api/v2/item/579/"
    },
    {
      "name": "prism-scale",
      "url": "https://pokeapi.co/api/v2/item/580/"
    }
  ]
}