{
  "count": 2180,
  "next": "https://pokeapi.co/api/v2/item?offset=60&limit=20",
  "previous": "https://pokeapi.co/api/v2/item?offset=20&limit=20",
  "results": [
    {
      "name": "max-elixir",
      "url": "https://pokeapi.co/api/v2/item/41/"
    },
    {
      "name": "lava-cookie",
      "url": "https://pokeapi.co/api/v2/item/42/"
    },
    {
      "name": "berry-juice",
      "url": "https://pokeapi.co/api/v2/item/43/"
    },
    {
      "name": "sacred-ash",
      "url": "https://pokeapi.co/api/v2/item/44/"
    },
    {
      "name": "hp-up",
      "url": "https://pokeapi.co/api/v2/item/45/"
    },
    {
      "name": "protein",
      "url": "https://pokeapi.co/api/v2/item/46/"
    },
    {
      "name": "iron",
      "url": "https://pokeapi.co/api/v2/item/47/"
    },
    {
      "name": "carbos",
      "url": "https://pokeapi.co/api/v2/item/48/"
    },
    {
      "name": "calcium",
      "url": "https://pokeapi.co/api/v2/item/49/"
    },
    {
      "name": "rare-candy",
      "url": "https://pokeapi.co/api/v2/item/50/"
    },
    {
      "name": "pp-up",
      "url": "https://pokeapi.co/api/v2/item/51/"
    },
    {
      "name": "zinc",
      "url": "https://pokeapi.co/api/v2/item/52/"
    },
    {
      "name": "pp-max",
      "url": "https://pokeapi.co/api/v2/item/53/"
    },
    {
      "name": "old-gateau",
      "url": "https://pokeapi.co/api/v2/item/54/"
    },
    {
      "name": "guard-spec",
      "url": "https://pokeapi.co/api/v2/item/55/"
    },
    {
      "name": "dire-hit",
      "url": "https://pokeapi.co/api/v2/item/56/"
    },
    {
      "name": "x-attack",
      "url": "https://pokeapi.co/api/v2/item/57/"
    },
    {
      "name": "x-defense",
      "url": "https://pokeapi.co/api/v2/item/58/"
    },
    {
      "name": "x-speed",
      "url": "https://pokeapi.co/api/v2/item/59/"
    },
    {
      "name": "x-accuracy",
      "url": "https://pokeapi.co/api/v2/item/60/"
    }
  ]
}