{
  "count": 2180,
  "next": "https://pokeapi.co/api/v2/item?offset=2060&limit=20",
  "previous": "https://pokeapi.co/api/v2/item?offset=2020&limit=20",
  "results": [
    {
      "name": "sunset-flower-pick",
      "url": "https://pokeapi.co/api/v2/item/2092/"
    },
    {
      "name": "sunrise-flower-pick",
      "url": "https://pokeapi.co/api/v2/item/2093/"
    },
    {
      "name": "blue-dish",
      "url": "https://pokeapi.co/api/v2/item/2094/"
    },
    {
      "name": "green-dish",
      "url": "https://pokeapi.co/api/v2/item/2095/"
    },
    {
      "name": "orange-dish",
      "url": "https://pokeapi.co/api/v2/item/2096/"
    },
    {
      "name": "red-dish",
      "url": "https://pokeapi.co/api/v2/item/2097/"
    },
    {
      "name": "white-dish",
      "url": "https://pokeapi.co/api/v2/item/2098/"
    },
    {
      "name": "yellow-dish",
      "url": "https://pokeapi.co/api/v2/item/2099/"
    },
    {
      "name": "roto-stick",
      "url": "https://pokeapi.co/api/v2/item/2100/"
    },
    {
      "name": "teal-style-card",
      "url": "https://pokeapi.co/api/v2/item/2101/"
    },
    {
      "name": "teal-mask",
      "url": "https://pokeapi.co/api/v2/item/2102/"
    },
    {
      "name": "glimmering-charm",
      "url": "https://pokeapi.co/api/v2/item/2103/"
    },
    {
      "name": "crystal-cluster",
      "url": "https://pokeapi.co/api/v2/item/2104/"
    },
    {
      "name": "fairy-feather",
      "url": "https://pokeapi.co/api/v2/item/2105/"
    },
    {
      "name": "wellspring-mask",
      "url": "https://pokeapi.co/api/v2/item/2106/"
    },
    {
      "name": "hearthflame-mask",
      "url": "https://pokeapi.co/api/v2/item/2107/"
    },
    {
      "name": "cornerstone-mask",
      "url": "https://pokeapi.co/api/v2/item/2108/"
    },
    {
      "name": "syrupy-apple",
      "url": "https://pokeapi.co/api/v2/item/2109/"
    },
    {
      "name": "unremarkable-teacup",
      "url": "https://pokeapi.co/api/v2/item/2110/"
    },
    {
      "name": "masterpiece-teacup",
      "url": "https://pokeapi.co/api/v2/item/2111/"
    }
  ]
}