{
  "count": 2102,
  "next": "https://pokeapi.co/api/v2/machine?offset=1920&limit=20",
  "previous": "https://pokeapi.co/api/v2/machine?offset=1880&limit=20",
  "results": [
    {
      "url": "https://pokeapi.co/api/v2/machine/1901/"
    },
    {
      "url": "https://pokeapi.co/api/v2/machine/1902/"
    },
    {
      "url": "https://pokeapi.co/api/v2/machine/1903/"
    },
    {
      "url": "https://pokeapi.co/api/v2/machine/1904/"
    },
    {
      "url": "https://pokeapi.co/api/v2/machine/1905/"
    },
    {
      "url": "https://pokeapi.co/api/v2/machine/1906/"
    },
    {
      "url": "https://pokeapi.co/api/v2/machine/1907/"
    },
    {
      "url": "https://pokeapi.co/api/v2/machine/1908/"
    },
    {
      "url": "https://pokeapi.co/api/v2/machine/1909/"
    },
    {
      "url": "https://pokeapi.co/api/v2/machine/1910/"
    },
    {
      "url": "https://pokeapi.co/api/v2/machine/1911/"
    },
    {
      "url": "https://pokeapi.co/api/v2/machine/1912/"
    },
    {
      "url": "https://pokeapi.co/api/v2/machine/1913/"
    },
    {
      "url": "https://pokeapi.co/api/v2/machine/1914/"
    },
    {
      "url": "https://pokeapi.co/api/v2/machine/1915/"
    },
    {
      "url": "https://pokeapi.co/api/v2/machine/1916/"
    },
    {
      "url": "https://pokeapi.co/api/v2/machine/1917/"
    },
    {
      "url": "https://pokeapi.co/api/v2/machine/1918/"
    },
    {
      "url": "https://pokeapi.co/api/v2/machine/1919/"
    },
    {
      "url": "https://pokeapi.co/api/v2/machine/1920/"
    }
  ]
}